module github.com/boveloco/sweden-electricity-price

go 1.20

require github.com/influxdata/influxdb-client-go/v2 v2.12.2

require (
	github.com/apapsch/go-jsonmerge/v2 v2.0.0 // indirect
	github.com/deepmap/oapi-codegen v1.12.4 // indirect
	github.com/go-co-op/gocron v1.23.0 // indirect
	github.com/google/uuid v1.3.0 // indirect
	github.com/influxdata/line-protocol v0.0.0-20210922203350-b1ad95c89adf // indirect
	github.com/pkg/errors v0.9.1 // indirect
	github.com/robfig/cron/v3 v3.0.1 // indirect
	golang.org/x/net v0.8.0 // indirect
)
